{
    "banks": [
        {
            "name": "Abu Dhabi Islamic Bank",
            "code": "ABDIQAQA"
        },
        {
            "name": "Ahli Bank Qatar",
            "code": "ABQQQAQA"
        },
        {
            "name": "Al Khaliji Bank",
            "code": "KLJIQAQA"
        },
        {
            "name": "Al Zaman Exchange",
            "code": "ALZAQAQA"
        },
        {
            "name": "Al Jazeera Exchange Company",
            "code": "AEXCQAQA"
        },
        {
            "name": "Arab Bank",
            "code": "ARABQAQA"
        },
        {
            "name": "Arab Jordan Investment Bank (Qatar) L.L.C.",
            "code": "AJIBQAQA"
        },
        {
            "name": "Bank Audi LLC",
            "code": "AUDBQAQA"
        },
        {
            "name": "Barwa Bank",
            "code": "BRWAQAQA"
        },
        {
            "name": "BLOM BANK QATAR LLC",
            "code": "BLOMQAQA"
        },
        {
            "name": "BMI Bank B.S.C. (Qatar Branch)",
            "code": "BMUSQAQA"
        },
        {
            "name": "BNP Paribas",
            "code": "BNPAQA21"
        },
        {
            "name": "BNP Paribas Qatar",
            "code": "BNPAQAQA"
        },
        {
            "name": "Citibank N.A.",
            "code": "CITIQAQA"
        },
        {
            "name": "City Exchange",
            "code": "CECQQAQA"
        },
        {
            "name": "Commercial Bank of Qatar",
            "code": "CBQAQAQA"
        },
        {
            "name": "Deutsche Bank",
            "code": "DEUTQAQA"
        },
        {
            "name": "Dlala Brokerage",
            "code": "DLBOQAQA"
        },
        {
            "name": "Doha Bank",
            "code": "DOHBQAQA"
        },
        {
            "name": "First Gulf Bank",
            "code": "FGBMQAQA"
        },
        {
            "name": "Gulf Invest Group",
            "code": "GUIRQAA1"
        },
        {
            "name": "HSBC Bank Middle East",
            "code": "BBMEQAQX"
        },
        {
            "name": "ICICI Bank",
            "code": "ICICQAQA"
        },
        {
            "name": "Industrial and Commercial Bank of China",
            "code": "ICBKQAQA"
        },
        {
            "name": "International Bank of Qatar",
            "code": "IBOQQAQA"
        },
        {
            "name": "International Financial Securities Company",
            "code": "ITFSQAQ1"
        },
        {
            "name": "Islamic Financial Securities Company",
            "code": "IFSOQAQ1"
        },
        {
            "name": "Lari Exchange Company",
            "code": "LAEXQAQ1"
        },
        {
            "name": "Mashreq Bank",
            "code": "MSHQQAQA"
        },
        {
            "name": "Masraf Al Rayan",
            "code": "MAFRQAQA"
        },
        {
            "name": "Ooredoo QSC",
            "code": "QTELQAQA"
        },
        {
            "name": "Qatar Central Bank",
            "code": "QMAGQAQA"
        },
        {
            "name": "Qatar Development Bank",
            "code": "QIDBQAQA"
        },
        {
            "name": "Qatar Exchange",
            "code": "DSMDQAQA"
        },
        {
            "name": "Qatar First Bank",
            "code": "QFIBQAQA"
        },
        {
            "name": "Qatar Foundation",
            "code": "QFQFQAQA"
        },
        {
            "name": "Qatar International Islamic Bank",
            "code": "QIIBQAQA"
        },
        {
            "name": "Qatar Investment Authority",
            "code": "GQICQAQA"
        },
        {
            "name": "Qatar Islamic Bank",
            "code": "QISBQAQA"
        },
        {
            "name": "Qatar National Bank",
            "code": "QNBAQAQA"
        },
        {
            "name": "Qatar Petroleum",
            "code": "QPQPQAQ1"
        },
        {
            "name": "Qatar Securities Company",
            "code": "QASCQAQ1"
        },
        {
            "name": "Qatargas Operating Company Limited",
            "code": "QAQGQAQA"
        },
        {
            "name": "QInvest LLC",
            "code": "QINVQAQA"
        },
        {
            "name": "QNB Financial Services",
            "code": "QNBFQAQ1"
        },
        {
            "name": "RasGas Company Limited",
            "code": "RLNGQAT1"
        },
        {
            "name": "Royal Bank of Scotland Plc",
            "code": "RBOSQAQ1"
        },
        {
            "name": "Samba Financial Group",
            "code": "SAMBQAQA"
        },
        {
            "name": "Standard Chartered",
            "code": "SCBLQAQXQFC"
        },
        {
            "name": "State Bank Of India",
            "code": "SBINQAQA"
        },
        {
            "name": "Tasweeq QIPMC",
            "code": "TSWQQAQB"
        },
        {
            "name": "The Group Securities",
            "code": "GRPSQAQA"
        },
        {
            "name": "Union National Bank",
            "code": "UNBEQAQH"
        },
        {
            "name": "United Bank Limited",
            "code": "UNILQAQA"
        }
    ]
}
