{
    "shippings": [
        {
            "name": "WBlue Express",    
            "number": "",
            "location": "",
            "email": "",
            "website": ""
        },
        {
            "name": "DHL Express Qatar",    
            "number": "974 4458 7888",
            "location": "",
            "email": "qa.info@dhl.com",
            "website": "http://www.dhl.com.qa"
        },
        {
            "name": "FedEx",    
            "number": "974 4484 1111",
            "location": "Building 305, Street 230, Zone 40, C-Ring Road, P.O.Box 4803, Doha, Qatar",
            "email": "",
            "website": ""
        },
        {
            "name": "AlNahhla Delivery Services",    
            "number": "974 5000 4180",
            "location": "Tower 1, Barwa Towers Suhaim Bin Hamad Street C Ring Road",
            "email": "nfo@alnahhla.com.qa",
            "website": ""
        },
        {
            "name": "HAMMALY",    
            "number": "974 7790 4530",
            "location": "Hammaly Deliveries LLC Aamal Tower, 7th Floor Doha, Qatar",
            "email": "info@hammaly.com",
            "website": ""
        },
        {
            "name": "Qatar Post",    
            "number": "974 4446 4000",
            "location": "",
            "email": "info@qatarposts.com",
            "website": ""
        }
    ]
}